#include<stdio.h>
#include<stdlib.h>
Clrscr();
int a[8];
int n=0,i,j,temp;
void add()
{
if(n<=7)
{
	int flag=0,elem,j,i;
	printf("Enter the element:-");
	scanf("%d",&elem);
	for(i=0;i<=n;i++)
	{
		if(a[i]==elem)
		{
			flag=1;
		}
	}
		if(flag==1)
		{
			printf("Element cant be repeated.\n");
		}
		else
		{
			a[n]=elem;
			printf("Element added.\n");
			n=n+1;
		}
}
else
{
	printf("The array is full\n");
}
}

void print_arrfunc()
{
int i=0;
printf("The elements are:");

for(i=0;i<n;i++)
{
	printf("%d,",a[i]);
}
printf("\n");
}

void search()
{
int flag=0,target_elem,temp,i=0;
printf("Enter the element to be search");
scanf("%d",&target_elem);
for(i=0;i<n;i++)
{
	if(a[i]==target_elem)
	{
		flag=1;
		temp=i;
		break;
	}
}
if(flag==1)
{
	printf("Found %d at index:%d\n",target_elem,temp);
}
else
{
	printf("%d is not present\n",target_elem);
}
}

void sorting()
{
	int pref;
	printf("1.Ascending\n");
	printf("2.Descending\n");
	scanf("%d",&pref);
	if(pref==1)
	{
		ascen();
	}
	else if(pref==2)
	{
		dscen();
	}
}

void ascen()
{
int temp,j=0,i=0,k=0;
for(i=0;i<n;i++)
{
	for(j=0;j<n-1;j++)
	{
		if(a[j]>a[j+1])
		{
			temp=a[j];
			a[j]=a[j+1];
			a[j+1]=temp;
		}
	}
}
printf("\nThe array after sorting is:");
for(k=0;k<n;k++)
{
	printf("%d,",a[k]);
}
printf("\n");
}

void dscen()
{
int temp,j=0,i=0,k=0;
for(i=0;i<n;i++)
{
	for(j=0;j<n-1;j++)
	{
		if(a[j]<a[j+1])
		{
			temp=a[j];
			a[j]=a[j+1];
			a[j+1]=temp;
		}
	}
}
printf("\nThe array after sorting is:");
for(k=0;k<n;k++)
{
	printf("%d,",a[k]);
}
printf("\n");
}

void delete()
{
	int flag=0,target_elem1,i=0;
	printf("Enter the element to be deleted");
	scanf("%d",&target_elem1);
	for(i=0;i<n;i++)
	{
		if(a[i]==target_elem1)
		{
			flag=1;
			temp=i;
			break;
		}
	}
	if(flag==1)
	{
		for(j=temp;j<n-1;j++)
		{
			a[j]=a[j+1];
		}
		printf("Element removed\n");
		n=n-1;	
	}
	else if(flag==0)
	{
		printf("%d is not removed\n",target_elem1);
	}
	
}
int main()
{
        int choice;
        do{
                
		printf("1.Add\n");
                printf("2.Search\n");
                printf("3.Remove\n");
                printf("4.Sort\n");
                printf("5.Display\n");
                printf("6.Exit\n");
                
                
                printf("\nEnter Choice:\t");
                scanf("%d",&choice);
                switch(choice)
                {
                        case 1: add();
                                break;

                        case 2: search();
                                break;

                        case 3: delete();
                                break;
 
                        
                        case 4: sorting();
                                break;

                        case 5: print_arrfunc();
                                break;
                        
                        case 6: exit(0);
                                break;

                        default: printf("\nEnter Valid Choice:\n");
                                 break;
                }
        }while(choice!=6);

return 0;
}



































