#include<stdio.h> 
#include<conio.h>
#includ<string.h> 
int main() 
{ 
	int l;
	char a[100];
	printf("\nEnter the String:-  \n "); 
	gets(a);
	l=strlen(a);
	printf("Length of String is %d",l); 
	return -1;
	getch();
} 
